{
  "meta": {
    "templateCredsSetupCompleted": true,
    "instanceId": "bf757d9b29c3a3422c287c155d2f78469af5eaed3324460b25608213e1207a0a"
  },
  "nodes": [
    {
      "parameters": {
        "httpMethod": "POST",
        "path": "50bc86f7-d4fa-44ca-badc-7fc9199da2b1",
        "responseMode": "responseNode",
        "options": {}
      },
      "id": "5687e676-be19-4d49-b05f-958c6525fef3",
      "name": "Webhook",
      "type": "n8n-nodes-base.webhook",
      "typeVersion": 1.1,
      "position": [
        380,
        260
      ],
      "webhookId": "50bc86f7-d4fa-44ca-badc-7fc9199da2b1"
    },
    {
      "parameters": {
        "url": "=https://www.virustotal.com/api/v3/files/{{ $json.body.text }}",
        "authentication": "genericCredentialType",
        "genericAuthType": "httpHeaderAuth",
        "options": {}
      },
      "id": "de6d097c-6721-45d0-a6b5-1aa796d59f57",
      "name": "VT Request",
      "type": "n8n-nodes-base.httpRequest",
      "typeVersion": 4.1,
      "position": [
        1260,
        240
      ],
      "credentials": {
        "httpHeaderAuth": {
          "id": "2rD2poOCxJ9PSuAz",
          "name": "VT account guille"
        }
      }
    },
    {
      "parameters": {
        "method": "POST",
        "url": "={{ $('Webhook').item.json.body.response_url }}",
        "sendBody": true,
        "bodyParameters": {
          "parameters": [
            {
              "name": "text",
              "value": "=MD5: {{ $json.data.attributes.md5 }}\nSHA1: {{ $json.data.attributes.sha1 }}"
            }
          ]
        },
        "options": {}
      },
      "id": "ed871941-3d09-4c19-8b45-0438e5583965",
      "name": "Reply to slack",
      "type": "n8n-nodes-base.httpRequest",
      "typeVersion": 4.1,
      "position": [
        1480,
        240
      ]
    },
    {
      "parameters": {
        "action": "hmac",
        "type": "SHA256",
        "value": "={{ \"v0:\" + $json.headers['x-slack-request-timestamp'] + \":\" \n+  $json.body.urlEncode() }}",
        "secret": "d8d0b2189def65463db8fef316fb20f2"
      },
      "id": "85cf1234-fe82-4639-951f-aae7119a13dc",
      "name": "Crypto",
      "type": "n8n-nodes-base.crypto",
      "typeVersion": 1,
      "position": [
        600,
        260
      ]
    },
    {
      "parameters": {
        "conditions": {
          "options": {
            "caseSensitive": true,
            "leftValue": "",
            "typeValidation": "strict"
          },
          "conditions": [
            {
              "id": "a7a4381a-d2a1-4a98-bc44-59813e346587",
              "leftValue": "={{ \"v0=\" + $json.data }}",
              "rightValue": "={{ $('Webhook').item.json.headers['x-slack-signature'] }}",
              "operator": {
                "type": "string",
                "operation": "equals"
              }
            }
          ],
          "combinator": "and"
        },
        "options": {}
      },
      "id": "5f43ed4a-0a4f-4208-ad19-9cda57779e0e",
      "name": "If",
      "type": "n8n-nodes-base.if",
      "typeVersion": 2,
      "position": [
        820,
        260
      ]
    },
    {
      "parameters": {
        "respondWith": "text",
        "responseBody": "{\"text\": \"VT request received\", \"response_type\": \"in_channel\"}",
        "options": {}
      },
      "id": "8f77c45a-8096-48cb-ab30-79568a24d587",
      "name": "Respond to Webhook",
      "type": "n8n-nodes-base.respondToWebhook",
      "typeVersion": 1,
      "position": [
        1060,
        240
      ]
    }
  ],
  "connections": {
    "Webhook": {
      "main": [
        [
          {
            "node": "Crypto",
            "type": "main",
            "index": 0
          }
        ]
      ]
    },
    "VT Request": {
      "main": [
        [
          {
            "node": "Reply to slack",
            "type": "main",
            "index": 0
          }
        ]
      ]
    },
    "Crypto": {
      "main": [
        [
          {
            "node": "If",
            "type": "main",
            "index": 0
          }
        ]
      ]
    },
    "If": {
      "main": [
        [
          {
            "node": "Respond to Webhook",
            "type": "main",
            "index": 0
          }
        ]
      ]
    },
    "Respond to Webhook": {
      "main": [
        [
          {
            "node": "VT Request",
            "type": "main",
            "index": 0
          }
        ]
      ]
    }
  },
  "pinData": {}
}
